^D:\PROGRAMMATION AVANCEE\L2-PROGRAMMATION-AVANCEE\PROJET\PROJET\DEBUG\MAIN.OBJ
D:\PROGRAMMATION AVANCEE\L2-PROGRAMMATION-AVANCEE\PROJET\DEBUG\PROJET.EXE
D:\PROGRAMMATION AVANCEE\L2-PROGRAMMATION-AVANCEE\PROJET\DEBUG\PROJET.ILK
D:\PROGRAMMATION AVANCEE\L2-PROGRAMMATION-AVANCEE\PROJET\DEBUG\PROJET.PDB
